{
  "defaultSeverity": "error",
  "extends": [
    "tslint:latest",
    "tslint-config-standard",
    "tslint-config-prettier"
  ],
  "jsRules": {},
  "rules": {
    "object-literal-sort-keys": false,
    "interface-name": [true, "never-prefix"],
    "ordered-imports": [
      true,
      {
        "module-source-path": "full",
        "grouped-imports": true
      }
    ],
    "no-implicit-dependencies": [true, "dev"]
  },
  "rulesDirectory": []
}
